<?xml version="1.0" encoding="utf-8"?>
<!-- Generator: Adobe Illustrator 25.2.3, SVG Export Plug-In . SVG Version: 6.00 Build 0)  -->
<svg version="1.1" id="Layer_1" xmlns="http://www.w3.org/2000/svg" xmlns:xlink="http://www.w3.org/1999/xlink" x="0px" y="0px"
	 viewBox="0 0 32 30.6" style="enable-background:new 0 0 32 30.6;" xml:space="preserve">
<style type="text/css">
	.st0{fill:#EE4036;}
	.st1{fill:#262261;}
</style>
<rect x="9.5" y="8.9" class="st0" width="14.4" height="12.4"/>
<path class="st1" d="M20.8,23.6h-17c-2,0-3.6-1.6-3.6-3.6V3.9c0-2,1.6-3.6,3.6-3.6h17c2,0,3.6,1.6,3.6,3.6v16.2
	C24.3,22,22.7,23.6,20.8,23.6z M3.8,2.7c-0.7,0-1.2,0.5-1.2,1.2v16.2c0,0.7,0.5,1.2,1.2,1.2h17c0.7,0,1.2-0.5,1.2-1.2V3.9
	c0-0.7-0.5-1.2-1.2-1.2H3.8z"/>
<path class="st1" d="M28.2,30.3h-17c-2,0-3.6-1.6-3.6-3.6V10.6c0-2,1.6-3.6,3.6-3.6h17c2,0,3.6,1.6,3.6,3.6v16.2
	C31.8,28.7,30.2,30.3,28.2,30.3z M11.2,9.4c-0.7,0-1.2,0.5-1.2,1.2v16.2c0,0.7,0.5,1.2,1.2,1.2h17c0.7,0,1.2-0.5,1.2-1.2V10.6
	c0-0.7-0.5-1.2-1.2-1.2C28.2,9.4,11.2,9.4,11.2,9.4z"/>
</svg>
